…
## Parsed with column specification:
## cols(
##   nr = col_integer(),
##   sex = col_integer(),
##   location = col_character(),
##   age = col_integer(),
##   tl = col_double()
## )

mudil

## # A tibble: 961 x 5
##       nr   sex location        age    tl
##    <int> <int> <chr>         <int> <dbl>
##  1    38     3 Tallinna laht     0  29  
##  2    40     3 Tallinna laht     0  33  
##  3    42     3 Tallinna laht     0  39  
##  4    48     3 Tallinna laht     0  46  
##  5    54     3 Kihnu             1  35.3
##  6    56     3 Kihnu             1  42.8
##  7    63     3 Kihnu             1  44.4
##  8    68     3 Kihnu             1  22.4
##  9     6     0 Kihnu             1  66.5
## 10     8     0 Kihnu             1  33.6
## # ... with 951 more rows

Fish id: location + nr

mudil %>% 
  group_by(nr, age, location) %>% 
  summarise(N = n())

## # A tibble: 961 x 4
## # Groups:   nr, age [?]
##       nr   age location          N
##    <int> <int> <chr>         <int>
##  1     1     1 K채smu             1
##  2     1     1 Kihnu             1
##  3     1     1 K천iguste          1
##  4     1     1 Matsalu           1
##  5     1     1 Saarnaki          1
##  6     1     1 Tallinna laht     1
##  7     1     1 Vilsandi          1
##  8     1     2 K채smu             1
##  9     1     2 Kihnu             1
## 10     1     2 K천iguste          1
## # ... with 951 more rows
…
